{
  "errorCode": 9000,
  "errorMessage": "成功",
  "data": {
    "pageSize": 14,
    "start": 0,
    "resultCount": 23,
    "pageIndex": 0,
    "pageCount": 2,
    "newCount": 0
  },
  "results": [{
      "id": "381037513743138816",
      "code": "1510888022611",
      "title": "假期补习",
      "intro": "快乐学习，欢度假期！火热招生季",
      "icon": "https://img.ishanshan.com/gimg/img/3dd7d29a08656f06367feecd1aac5e88",
      "amount": 250,
      "isOpen": "1"
    },
    {
      "id": "380067222107848704",
      "code": "1510656687058",
      "title": "元旦模板",
      "intro": "喜迎新年新气象，招生特惠正当时",
      "icon": "https://img.ishanshan.com/gimg/img/22c36cdb6b322650a2e1b3dc9f00d732",
      "amount": 242,
      "isOpen": "1"
    },
    {
      "id": "379575704318246912",
      "code": "1510539500085",
      "title": "玩具总动员",
      "intro": "亲子游戏，为宝宝益智成长加油！",
      "icon": "https://img.ishanshan.com/gimg/img/f9a4009f3841d199a08a094cd926dfc7",
      "amount": 566,
      "isOpen": "1"
    },
    {
      "id": "380413328016670720",
      "code": "1510739205137",
      "title": "音乐培训",
      "intro": "火爆音乐课程，点燃线下生源！",
      "icon": "https://img.ishanshan.com/gimg/img/ebc11847d48098d1d34e089187f52fb9",
      "amount": 461,
      "isOpen": "1"
    },
    {
      "id": "379576758632054784",
      "code": "1510539751453",
      "title": "芭蕾人生",
      "intro": "勇敢追逐梦想，舞出精彩人生！",
      "icon": "https://img.ishanshan.com/gimg/img/a58c5655b722d248edb3466797900c8d",
      "amount": 237,
      "isOpen": "1"
    },
    {
      "id": "380425705416163328",
      "code": "1510742156138",
      "title": "春季招生",
      "intro": "一年之计在于春，让梦想扬帆起航",
      "icon": "https://img.ishanshan.com/gimg/img/d9ea626ca6544b1e8d061e87a3a31129",
      "amount": 372,
      "isOpen": "1"
    },
    {
      "id": "381114632057782272",
      "code": "1510906409050",
      "title": "外教培训班",
      "intro": "个性化辅导给孩子专业的外语启蒙",
      "icon": "https://img.ishanshan.com/gimg/img/afdd6567a6ab124e167728c6b09a9beb",
      "amount": 366,
      "isOpen": "1"
    },
    {
      "id": "380429624095670272",
      "code": "1510743090425",
      "title": "益智玩具总动员",
      "intro": "玩乐中迈出宝宝启智发育第一步！",
      "icon": "https://img.ishanshan.com/gimg/img/8a0575569130fcfceefba5b4151445a6",
      "amount": 565,
      "isOpen": "1"
    },
    {
      "id": "380307856664166400",
      "code": "1510714058807",
      "title": "寒假班",
      "intro": "假期学习两不误，报班优惠大放送",
      "icon": "https://img.ishanshan.com/gimg/img/a32a33722f7fdbed4cad90584429f244",
      "amount": 358,
      "isOpen": "1"
    },
    {
      "id": "380308592651272192",
      "code": "1510714234280",
      "title": "约惠圣诞",
      "intro": "约惠圣诞节，欢乐购GO不停！",
      "icon": "https://img.ishanshan.com/gimg/img/a3fe94cc09fbd39671edec83fbbb57f9",
      "amount": 639,
      "isOpen": "1"
    },
    {
      "id": "379566479105982464",
      "code": "1510537300623",
      "title": "少儿舞蹈",
      "intro": "舞蹈招生，给孩子最好的艺术启蒙",
      "icon": "https://img.ishanshan.com/gimg/img/4ed8c153582a9c2f180327c6882e76ba",
      "amount": 123,
      "isOpen": "1"
    },
    {
      "id": "373491843138060288",
      "code": "1509088994547",
      "title": "万圣节",
      "intro": "不给糖，就捣乱~",
      "icon": "https://img.ishanshan.com/gimg/img/4324de8985d0c713ed77f4551399a0ca",
      "amount": 2,
      "isOpen": "1"
    },
    {
      "id": "370578429633888256",
      "code": "1508394382639",
      "title": "双十一促销风模版",
      "intro": "年中钜惠大促销，打赢招生收官战",
      "icon": "https://img.ishanshan.com/gimg/img/82369f77d47ed03083da5b29ddbee1e8",
      "amount": 7,
      "isOpen": "1"
    },
    {
      "id": "379696202356228096",
      "code": "1510568229056",
      "title": "机构简章",
      "intro": "5分钟制作，宣传招生双管齐下",
      "icon": "https://img.ishanshan.com/gimg/img/42c3060f742870b840ded9303dacc45f",
      "amount": 135,
      "isOpen": "1"
    }
  ]
}
