{
  "errorCode": 9000,
  "errorMessage": null,
  "data": {
    "pageCount": 6,
    "resultCount": 83,
    "pageIndex": 0,
    "start": 0,
    "pageSize": 16
  },
  "results": [{
    "isopen": "1",
    "code": "132201712221552",
    "previewurl": "https://saas.ishanshan.com/saas-mobile/appMicroActivity/passInActivityPage/132201712221552/199/34936/3493600001/7388",
    "price": "123.0",
    "intro": "清明踏青",
    "virtualViews": 622,
    "icon": "https://img.ishanshan.com/gimg/img/3599d5c5cf26d9fead126870f7fd0ba3",
    "id": 199,
    "title": "清明踏青",
    "type": "activity",
    "categoryid": 1,
    "views": "64"
  }, {
    "isopen": "1",
    "code": "7582201712151723",
    "previewurl": "https://saas.ishanshan.com/saas-mobile/appMicroActivity/passInActivityPage/7582201712151723/191/34937/3493700000/7374",
    "price": "125.0",
    "intro": "狂欢复活节，一起来嗨皮！",
    "virtualViews": 689,
    "icon": "https://img.ishanshan.com/gimg/img/53de919f18a4a52eb9fff7ef61afc739",
    "id": 191,
    "title": "复活节",
    "type": "activity",
    "categoryid": 1,
    "views": "17"
  }, {
    "isopen": "1",
    "code": "5326201711271231",
    "previewurl": "https://saas.ishanshan.com/saas-mobile/appMicroActivity/passInActivityPage/5326201711271231/175/34937/3493700000/7365",
    "price": "123.0",
    "intro": "愚你同乐，笑声常在！",
    "virtualViews": 567,
    "icon": "https://img.ishanshan.com/gimg/img/06ad76e0f9ce2f6a1d233551c22e691b",
    "id": 175,
    "title": "愚人节",
    "type": "activity",
    "categoryid": 1,
    "views": "20"
  }, {
    "isopen": "1",
    "code": "834201803061600",
    "previewurl": "https://saas.ishanshan.com/saas-mobile/appMicroActivity/passInActivityPage/834201803061600/219/34937/3493700000/7348",
    "price": "99.0",
    "intro": "宝贝们的美术画展",
    "virtualViews": 962,
    "icon": "https://img.ishanshan.com/gimg/img/899999286e6e0e67675c273feb72bfee",
    "id": 219,
    "title": "美术画展邀请函",
    "type": "activity",
    "categoryid": 1,
    "views": "9"
  }, {
    "isopen": "1",
    "code": "8426201803021101",
    "previewurl": "https://saas.ishanshan.com/saas-mobile/appMicroActivity/passInActivityPage/8426201803021101/218/34937/3493700000/7347",
    "price": "99.0",
    "intro": "小朋友春季郊游，爬山，阳光乐悠悠",
    "virtualViews": 361,
    "icon": "https://img.ishanshan.com/gimg/img/0434cea42cb2237f4f3afa1cf52f40d4",
    "id": 218,
    "title": "春季郊游",
    "type": "activity",
    "categoryid": 1,
    "views": "35"
  }, {
    "isopen": "1",
    "code": "9915201712061051",
    "previewurl": "https://saas.ishanshan.com/saas-mobile/appMicroActivity/passInActivityPage/9915201712061051/182/34936/3493600001/7290",
    "price": "125.0",
    "intro": "种一棵小树，绿一方净土",
    "virtualViews": 985,
    "icon": "https://img.ishanshan.com/gimg/img/51ef9ec529e68081c261a9586de3ed2d",
    "id": 182,
    "title": "植树节",
    "type": "activity",
    "categoryid": 1,
    "views": "19"
  }, {
    "isopen": "1",
    "code": "605201801021014",
    "previewurl": "https://saas.ishanshan.com/saas-mobile/appMicroActivity/passInActivityPage/605201801021014/204/34936/3493600001/1697",
    "price": "125.0",
    "intro": "全新卡通招生模板，各类学科适用",
    "virtualViews": 325,
    "icon": "https://img.ishanshan.com/gimg/img/9707f116c8d259433cee0cace18ea71c",
    "id": 204,
    "title": "春季招生早教通用",
    "type": "activity",
    "categoryid": 1,
    "views": "47"
  }, {
    "isopen": "1",
    "code": "3395201711030918",
    "previewurl": "https://saas.ishanshan.com/saas-mobile/appMicroActivity/passInActivityPage/3395201711030918/164/34937/3493700001/7154",
    "price": "199.0",
    "intro": "热热闹闹庆元宵，欢欢喜喜迎新年",
    "virtualViews": 357,
    "icon": "https://img.ishanshan.com/gimg/img/6792488e87143d50ae5477beee2b3d36",
    "id": 164,
    "title": "元宵节",
    "type": "activity",
    "categoryid": 1,
    "views": "22"
  }, {
    "isopen": "1",
    "code": "7669201710101004",
    "previewurl": "https://saas.ishanshan.com/saas-mobile/appMicroActivity/passInActivityPage/7669201710101004/148/34936/3493600001/1677",
    "price": "99.0",
    "intro": "新春招生，不一样的招生体验",
    "virtualViews": 652,
    "icon": "https://img.ishanshan.com/gimg/img/e183eebc53ee8c0a0e03a8102eb4e212",
    "id": 148,
    "title": "春季招生",
    "type": "activity",
    "categoryid": 1,
    "views": "41"
  }, {
    "isopen": "1",
    "code": "2605201709191453",
    "previewurl": "https://saas.ishanshan.com/saas-mobile/appMicroActivity/passInActivityPage/2605201709191453/140/34937/3493700001/1674",
    "price": "99.0",
    "intro": "跨年同欢！2018遇见更好的自己",
    "virtualViews": 589,
    "icon": "https://img.ishanshan.com/gimg/img/d15936fa002550d45085809c34163c03",
    "id": 140,
    "title": "新年模版",
    "type": "activity",
    "categoryid": 1,
    "views": "29"
  }, {
    "isopen": "1",
    "code": "911201801091736",
    "previewurl": "https://saas.ishanshan.com/saas-mobile/appMicroActivity/passInActivityPage/911201801091736/209/34937/3493700001/1673",
    "price": "69.0",
    "intro": "冬季招生，给孩子一个快乐的寒假",
    "virtualViews": 233,
    "icon": "https://img.ishanshan.com/gimg/img/3524f66f1f5466b529d7245d4cf679a8",
    "id": 209,
    "title": "冬令营模板",
    "type": "activity",
    "categoryid": 1,
    "views": "2"
  }, {
    "isopen": "1",
    "code": "3283201801101554",
    "previewurl": "https://saas.ishanshan.com/saas-mobile/appMicroActivity/passInActivityPage/3283201801101554/210/34937/3493700001/7104",
    "price": "125.0",
    "intro": "引领春季招生新风尚",
    "virtualViews": 234,
    "icon": "https://img.ishanshan.com/gimg/img/e6535dec9c153969edbb2b46dc3e0929",
    "id": 210,
    "title": "青少年招生通用",
    "type": "activity",
    "categoryid": 1,
    "views": "9"
  }, {
    "isopen": "1",
    "code": "8854201710271051",
    "previewurl": "https://saas.ishanshan.com/saas-mobile/appMicroActivity/passInActivityPage/8854201710271051/160/34936/3493600001/1609",
    "price": "99.0",
    "intro": "传统民俗文化体验，火热冬日招生",
    "virtualViews": 361,
    "icon": "https://img.ishanshan.com/gimg/img/291c240ada0a29781862b0a60ca9f5d9",
    "id": 160,
    "title": "腊八节模板",
    "type": "activity",
    "categoryid": 1,
    "views": "15"
  }, {
    "isopen": "1",
    "code": "8678201801031400",
    "previewurl": "https://saas.ishanshan.com/saas-mobile/appMicroActivity/passInActivityPage/8678201801031400/207/34936/3493600001/1608",
    "price": "125.0",
    "intro": "2018冬季班招生开始啦！",
    "virtualViews": 364,
    "icon": "https://img.ishanshan.com/gimg/img/22860ad8cddadee7479df6e764911314",
    "id": 207,
    "title": "寒假招生通用模板",
    "type": "activity",
    "categoryid": 1,
    "views": "10"
  }, {
    "isopen": "1",
    "code": "6817201801021137",
    "previewurl": "https://saas.ishanshan.com/saas-mobile/appMicroActivity/passInActivityPage/6817201801021137/206/34937/3493700001/1602",
    "price": "99.0",
    "intro": "没时间照顾孩子？为冬招打CALL",
    "virtualViews": 365,
    "icon": "https://img.ishanshan.com/gimg/img/70ee18ed15ba5b1f33d75544c7d88969",
    "id": 206,
    "title": "寒假招生通用",
    "type": "activity",
    "categoryid": 1,
    "views": "875"
  }],
  "success": true,
  "error": false
}
